<svg width="95" height="40" viewBox="0 0 95 95" fill="none" xmlns="http://www.w3.org/2000/svg">
<g clip-path="url(#clip0_14_18)">
<rect width="95" height="95" fill="none"/>
<path d="M54.7295 42.826V43.0445L54.8435 42.845H54.7295V42.826Z" fill="black"/>
<path d="M37.3635 18.05L37.6295 18.1925L37.43 17.9645C37.4315 17.9835 37.4315 18.0025 37.43 18.0215L37.3635 18.05Z" fill="black"/>
<path d="M34.8841 22.9235C36.7841 22.686 38.2091 20.9285 38.8266 20.0735C38.6271 19.931 38.3801 19.741 38.1141 19.513C37.0382 18.6529 35.6907 18.2049 34.3141 18.2495C32.4141 18.487 30.9796 20.273 30.3621 21.0995C31.0841 21.7455 33.0126 23.1515 34.8841 22.9235Z" fill="black"/>
<path d="M39.0165 18.4585C39.3395 18.6865 39.634 18.924 39.8335 19.1045C41.2965 17.4705 41.914 15.884 41.667 14.3545C41.4628 13.5421 41.1 12.778 40.5995 12.1063C40.099 11.4346 39.4706 10.8685 38.7505 10.4405C38.0855 11.21 36.632 13.1385 36.8505 15.067C37.1362 16.4232 37.9062 17.6289 39.0165 18.4585Z" fill="black"/>
<path d="M54.3305 32.8985C56.2305 32.8985 61.4176 32.509 64.1061 29.2885C66.7946 26.068 66.1865 20.615 65.911 19.0285C61.3795 19.095 58.083 20.3395 56.107 22.724C53.3805 26.011 53.8745 30.609 54.207 32.4425C54.2735 32.623 54.302 32.775 54.3305 32.8985Z" fill="black"/>
<path d="M43.3391 53.0005C41.6101 52.25 39.4441 53.0005 38.4656 53.485C38.8171 54.492 39.7386 56.6105 41.4676 57.361C43.1966 58.1115 45.3721 57.361 46.3411 56.8765C45.9991 55.86 45.0776 53.7415 43.3391 53.0005Z" fill="black"/>
<path d="M59.5174 62.586H33.4209V66.6045H59.5174V62.586Z" fill="black"/>
<path d="M38.076 83.315C38.4465 84.816 38.912 84.816 39.026 84.816H53.5325C53.7035 84.816 54.1405 84.816 54.4825 83.277L57.5225 67.944H35.3875L38.076 83.315Z" fill="black"/>
<path d="M47.1296 90.25C55.5848 90.25 63.8501 87.7427 70.8803 83.0453C77.9105 78.3479 83.3898 71.6712 86.6255 63.8597C89.8611 56.0482 90.7077 47.4526 89.0582 39.1599C87.4087 30.8672 83.3371 23.2499 77.3584 17.2712C71.3798 11.2925 63.7624 7.22094 55.4697 5.57142C47.1771 3.9219 38.5815 4.76849 30.7699 8.00414C22.9584 11.2398 16.2817 16.7192 11.5843 23.7494C6.88688 30.7796 4.37964 39.0448 4.37964 47.5C4.37964 58.838 8.88364 69.7116 16.9008 77.7288C20.8705 81.6985 25.5833 84.8475 30.7699 86.9958C35.9566 89.1442 41.5156 90.25 47.1296 90.25ZM28.8706 20.9C28.9561 20.7575 30.9796 17.2995 34.1146 16.9005C34.7895 16.8216 35.4732 16.8732 36.1286 17.0525C35.8461 16.5125 35.6596 15.9274 35.5776 15.3235C35.1501 12.179 38.0001 9.34799 38.1521 9.22449C38.2566 9.12377 38.3911 9.05996 38.5352 9.04281C38.6792 9.02566 38.825 9.0561 38.9501 9.12949C39.0926 9.21499 42.5506 11.2385 42.9496 14.3735C43.2346 16.606 41.9046 18.6485 41.0496 19.7315C46.5026 21.8595 50.4546 25.061 52.8296 29.2315C52.7807 26.5727 53.6235 23.974 55.2236 21.85C58.9001 17.48 66.2246 17.765 66.5001 17.784C66.6474 17.7906 66.7884 17.8453 66.9016 17.9396C67.0149 18.034 67.0941 18.1629 67.1271 18.3065C67.1936 18.6105 68.7896 25.783 65.1226 30.172C62.1871 33.687 56.8861 34.2095 54.7296 34.2665C55.2669 36.543 55.4748 38.8849 55.3471 41.2205C55.6391 40.9207 55.957 40.6473 56.2971 40.4035C60.0971 37.5535 65.9776 39.178 66.2246 39.254C66.3658 39.2954 66.4896 39.3819 66.5771 39.5003C66.6646 39.6186 66.7109 39.7623 66.7091 39.9095C66.7091 40.166 66.6236 46.2745 62.8141 49.115C61.1101 50.291 59.0686 50.8781 57.0001 50.787C55.7209 50.7873 54.4459 50.6407 53.2001 50.35L53.0386 50.483C51.7181 51.547 47.4146 55.4515 47.0916 61.2655H60.4866C60.5917 61.2679 60.6918 61.3107 60.7661 61.385C60.8404 61.4593 60.8832 61.5594 60.8856 61.6645V67.545C60.8832 67.6501 60.8404 67.7501 60.7661 67.8245C60.6918 67.8988 60.5917 67.9416 60.4866 67.944H58.9001L55.8411 83.6C55.6796 84.2555 55.1951 86.203 53.5231 86.203H39.0641C37.9431 86.203 37.1641 85.3385 36.7556 83.6285L34.0196 67.944H32.4806C32.3756 67.9416 32.2755 67.8988 32.2012 67.8245C32.1269 67.7501 32.0841 67.6501 32.0816 67.545V61.6455C32.0841 61.5404 32.1269 61.4403 32.2012 61.366C32.2755 61.2917 32.3756 61.2489 32.4806 61.2465H45.7141C45.7576 60.2843 45.9009 59.3291 46.1416 58.3965C45.1676 58.7714 44.1357 58.9739 43.0921 58.995C42.3523 59.0039 41.6185 58.8617 40.9356 58.577C38.0856 57.361 37.1356 53.694 37.0026 53.276C36.967 53.1328 36.9792 52.9818 37.0376 52.8463C37.0959 52.7107 37.1971 52.598 37.3256 52.5255C37.4776 52.44 40.9831 50.4925 43.8806 51.737C45.4235 52.5227 46.6238 53.848 47.2531 55.461C47.8711 54.231 48.6298 53.0769 49.5141 52.022C47.2531 51.6135 42.4081 50.331 40.0806 46.626C37.0501 41.8 39.5866 34.922 39.6911 34.637C39.7413 34.4971 39.8369 34.3781 39.9625 34.2989C40.0882 34.2197 40.2368 34.1849 40.3846 34.2C40.6981 34.2 47.9846 34.9315 51.0436 39.7765C53.0386 42.9495 52.6206 47.025 52.0886 49.4855L52.4211 49.2195C52.5255 47.2467 53.006 45.312 53.8366 43.5195C54.3031 40.3094 54.1091 37.0379 53.2666 33.9055C53.2351 33.8526 53.2126 33.7948 53.2001 33.7345V33.5065C52.9663 32.745 52.6839 31.9993 52.3546 31.274C50.1886 26.524 46.0276 22.971 40.0046 20.748C39.3111 21.7455 37.5346 23.94 35.0836 24.2535C31.9486 24.6525 29.1081 21.8025 29.0036 21.6885C28.9003 21.5884 28.8316 21.4579 28.8077 21.3161C28.7838 21.1742 28.8058 21.0284 28.8706 20.9Z" fill="black"/>
<path d="M40.8499 35.511C40.3749 37.012 38.9499 42.294 41.2584 45.961C43.5669 49.628 48.8585 50.6255 50.4545 50.8535C51.8415 46.493 51.6419 42.94 49.8559 40.3085C47.2909 36.518 42.2179 35.6725 40.8499 35.511Z" fill="black"/>
<path d="M62.016 48.032C64.695 46.0275 65.2365 41.857 65.341 40.432C63.935 40.1375 59.774 39.482 57.1045 41.4865C56.2546 42.1478 55.5686 42.9963 55.1 43.966C54.3438 45.5725 53.8928 47.3056 53.77 49.077C55.4135 49.4 59.394 49.9985 62.016 48.032Z" fill="black"/>
</g>
<defs>
<clipPath id="clip0_14_18">
<rect width="95" height="95" fill="none"/>
</clipPath>
</defs>
</svg>
