{
  "title": "Kaeforest",
  "description": "Wiki of personal notes, research and work archives.",
  "url": "https://www.nataziel.nexus",
  "language": "en",
  "author": {
    "artist_name": "Kae Machi",
    "name": "m (at) kae (dot) si",
    "email": "m@nataziel.nexus"
  },
  "feed": {
    "subtitle": "Archive of old posts/projects",
    "url": "https://www.nataziel.nexus/feed/feed.json"
  },
  "jsonfeed": {
    "path": "/feed/feed.json",
    "url": "https://www.nataziel.nexus/feed/feed.json"
  }
}
